{
    "type": "application",
    "source-directories": [
        "src"
    ],
    "elm-version": "0.19.1",
    "dependencies": {
        "direct": {
            "NoRedInk/elm-json-decode-pipeline": "1.0.0",
            "avh4/elm-color": "1.0.0",
            "billstclair/elm-port-funnel": "1.2.0",
            "billstclair/elm-websocket-client": "4.1.0",
            "elm/browser": "1.0.2",
            "elm/core": "1.0.5",
            "elm/html": "1.0.0",
            "elm/json": "1.1.3",
            "elm/time": "1.0.0",
            "elm/url": "1.0.0",
            "mdgriffith/elm-ui": "1.1.5"
        },
        "indirect": {
            "Janiczek/cmd-extra": "1.1.0",
            "elm/virtual-dom": "1.0.2",
            "elm-community/list-extra": "8.2.4"
        }
    },
    "test-dependencies": {
        "direct": {},
        "indirect": {
            "Skinney/murmur3": "2.0.8",
            "elm/regex": "1.0.0"
        }
    }
}
