<?xml version="1.0" encoding="UTF-8" standalone="no"?>
<svg
   xmlns:dc="http://purl.org/dc/elements/1.1/"
   xmlns:cc="http://creativecommons.org/ns#"
   xmlns:rdf="http://www.w3.org/1999/02/22-rdf-syntax-ns#"
   xmlns:svg="http://www.w3.org/2000/svg"
   xmlns="http://www.w3.org/2000/svg"
   xmlns:sodipodi="http://sodipodi.sourceforge.net/DTD/sodipodi-0.dtd"
   xmlns:inkscape="http://www.inkscape.org/namespaces/inkscape"
   inkscape:version="1.0 (4035a4fb49, 2020-05-01)"
   sodipodi:docname="wav-rd-ha.svg"
   id="svg8"
   version="1.1"
   viewBox="0 0 39.997505 19.98707"
   height="19.98707mm"
   width="39.997505mm">
  <defs
     id="defs2">
    <inkscape:path-effect
       only_selected="false"
       apply_with_weight="true"
       apply_no_weight="true"
       helper_size="0"
       steps="2"
       weight="33.333333"
       lpeversion="1"
       is_visible="true"
       id="path-effect2272"
       effect="bspline" />
  </defs>
  <sodipodi:namedview
     fit-margin-bottom="0"
     fit-margin-right="0"
     fit-margin-left="0"
     fit-margin-top="0"
     inkscape:window-maximized="0"
     inkscape:window-y="1119"
     inkscape:window-x="68"
     inkscape:window-height="1387"
     inkscape:window-width="2478"
     showgrid="false"
     inkscape:document-rotation="0"
     inkscape:current-layer="layer2"
     inkscape:document-units="mm"
     inkscape:cy="69.918622"
     inkscape:cx="49.806528"
     inkscape:zoom="7.9195959"
     inkscape:pageshadow="2"
     inkscape:pageopacity="0.0"
     borderopacity="1.0"
     bordercolor="#666666"
     pagecolor="#ffffff"
     id="base" />
  <metadata
     id="metadata5">
    <rdf:RDF>
      <cc:Work
         rdf:about="">
        <dc:format>image/svg+xml</dc:format>
        <dc:type
           rdf:resource="http://purl.org/dc/dcmitype/StillImage" />
        <dc:title></dc:title>
      </cc:Work>
    </rdf:RDF>
  </metadata>
  <g
     style="display:inline"
     inkscape:label="BG"
     id="layer3"
     inkscape:groupmode="layer" />
  <g
     style="display:none"
     inkscape:label="Pattern"
     id="layer2"
     inkscape:groupmode="layer">
    <path
       sodipodi:nodetypes="cc"
       id="path1624"
       d="M 5,0.64182559 V 14.844851"
       style="fill:none;stroke:#e04444;stroke-width:0.3;stroke-linecap:butt;stroke-linejoin:miter;stroke-miterlimit:4;stroke-dasharray:none;stroke-opacity:1" />
    <path
       style="fill:none;stroke:#e04444;stroke-width:0.3;stroke-linecap:butt;stroke-linejoin:miter;stroke-miterlimit:4;stroke-dasharray:none;stroke-opacity:1"
       d="M 35.132291,5.0969145 V 19.434946"
       id="path1624-3"
       sodipodi:nodetypes="cc" />
    <path
       style="fill:none;stroke:#e04444;stroke-width:0.3;stroke-linecap:butt;stroke-linejoin:miter;stroke-miterlimit:4;stroke-dasharray:none;stroke-opacity:1"
       d="M 10.132291,1.4188761 V 11.738083"
       id="path1624-6"
       sodipodi:nodetypes="cc" />
    <path
       sodipodi:nodetypes="cc"
       id="path1624-6-7"
       d="M 30.15,7.9614107 V 18.487592"
       style="fill:none;stroke:#e04444;stroke-width:0.3;stroke-linecap:butt;stroke-linejoin:miter;stroke-miterlimit:4;stroke-dasharray:none;stroke-opacity:1" />
    <path
       sodipodi:nodetypes="cc"
       id="path1624-6-5"
       d="M 15.15,3.4760474 V 11.93723"
       style="fill:none;stroke:#e04444;stroke-width:0.3;stroke-linecap:butt;stroke-linejoin:miter;stroke-miterlimit:4;stroke-dasharray:none;stroke-opacity:1" />
    <path
       style="fill:none;stroke:#e04444;stroke-width:0.3;stroke-linecap:butt;stroke-linejoin:miter;stroke-miterlimit:4;stroke-dasharray:none;stroke-opacity:1"
       d="M 25.15,8.2889269 V 16.416638"
       id="path1624-6-5-3"
       sodipodi:nodetypes="cc" />
    <path
       style="fill:none;stroke:#e04444;stroke-width:0.3;stroke-linecap:butt;stroke-linejoin:miter;stroke-miterlimit:4;stroke-dasharray:none;stroke-opacity:1"
       d="M 20.05,6.0693417 V 14.042534"
       id="path1624-6-5-5"
       sodipodi:nodetypes="cc" />
  </g>
  <g
     transform="translate(-8.1301681e-4,1.1697636e-4)"
     id="layer1"
     inkscape:groupmode="layer"
     inkscape:label="Layer 1">
    <path
       sodipodi:nodetypes="ccccccccccc"
       inkscape:original-d="m 39.885202,4.7115596 c -2.69e-4,5.1115688 -2.69e-4,10.2242554 0,15.3361174 -3.22947,2.8e-4 -6.458479,2.8e-4 -9.687409,0 C 23.399207,15.993501 16.600461,11.938788 9.8032487,7.8845495 c -2.702e-4,2.4679755 -2.702e-4,4.9354885 0,7.4038495 -3.2303108,2.11e-4 -6.4485721,1.42e-4 -9.68740937,-2.07e-4 -2.7022e-4,-5.127544 -2.7022e-4,-10.223697 0,-15.33611716 3.22893067,2.7983e-4 6.45793787,2.7983e-4 9.68740937,0 C 16.601298,4.006812 23.400377,8.0617232 30.197793,12.115203 c -2.7e-4,-2.4672262 -2.7e-4,-4.9351203 0,-7.4036434 3.229341,2.799e-4 6.458477,2.799e-4 9.687409,0 z"
       inkscape:path-effect="#path-effect2272"
       id="path2270"
       d="m 38.270736,7.267344 c 1.614466,2.5557844 1.614466,7.668471 -2.69e-4,10.224402 -1.614735,2.555931 -4.843744,2.555931 -9.857405,0.52868 C 23.399401,15.993176 16.600655,11.938463 13.201952,11.145494 9.8032487,10.352525 9.8032487,12.820038 8.1880933,14.054184 6.5729379,15.28833 3.3546766,15.288261 1.735258,12.724455 0.11583933,10.160648 0.11583933,5.064495 1.7303047,2.5082849 3.34477,-0.04792516 6.5737772,-0.04792516 11.587634,1.9792812 c 5.013858,2.0272063 11.812936,6.0821176 15.211548,6.8754066 3.398611,0.793289 3.398611,-1.6746051 5.013282,-2.9088667 1.61467,-1.2342615 4.843806,-1.2342615 6.458272,1.3215229 z"
       style="fill:none;stroke:#e04444;stroke-width:1;stroke-linecap:butt;stroke-linejoin:miter;stroke-miterlimit:4;stroke-dasharray:none;stroke-opacity:1" />
  </g>
</svg>
